<?xml version="1.0" encoding="UTF-8"?>
<svg xmlns="http://www.w3.org/2000/svg" xmlns:xlink="http://www.w3.org/1999/xlink" width="283.46pt" height="283.46pt" viewBox="0 0 283.46 283.46" version="1.1">
<g id="surface1">
<path style=" stroke:none;fill-rule:nonzero;fill:rgb(35.296631%,34.118652%,34.411621%);fill-opacity:1;" d="M 184.933594 102.808594 C 183.316406 101.046875 181.90625 99.09375 180.269531 97.347656 C 177.042969 93.898438 175.203125 93.820312 171.40625 96.628906 C 169.230469 98.242188 167.066406 99.914062 164.734375 101.269531 C 161.707031 103.027344 159.683594 102.582031 157.238281 100.066406 C 156.234375 99.039062 155.300781 97.933594 154.230469 96.984375 C 150.949219 94.074219 146.289062 93.652344 142.75 96.191406 C 140.765625 97.617188 139.035156 99.433594 137.3125 101.195312 C 134.457031 104.117188 132.777344 104.101562 129.976562 101.070312 C 128.195312 99.140625 126.386719 97.230469 124.445312 95.46875 C 122.847656 94.011719 121.195312 94.492188 119.789062 95.925781 C 119.179688 96.550781 118.589844 97.226562 118.128906 97.964844 C 114.03125 104.480469 113.265625 103.011719 107.882812 100.136719 C 106.390625 99.339844 104.535156 98.441406 102.996094 98.660156 C 97.597656 99.417969 93.164062 102.117188 89.53125 106.664062 C 92.824219 108.132812 95.96875 108.425781 98.710938 107.054688 C 101.839844 105.492188 104.503906 105.847656 107.332031 107.363281 C 111.484375 109.585938 115.289062 109.464844 119.035156 106.214844 C 122.269531 103.414062 123.59375 103.609375 126.59375 106.597656 C 129.972656 109.964844 133.921875 110.808594 138.230469 109.011719 C 140.773438 107.953125 143.128906 106.390625 145.460938 104.882812 C 148.222656 103.097656 150.210938 103.109375 152.511719 105.414062 C 154.152344 107.046875 155.445312 109.078125 157.25 110.46875 C 158.65625 111.554688 160.601562 112.433594 162.328125 112.46875 C 163.816406 112.496094 165.507812 111.429688 166.789062 110.433594 C 168.984375 108.726562 170.871094 106.628906 172.996094 104.824219 C 175.164062 102.984375 176.945312 102.953125 178.988281 104.761719 C 180.535156 106.132812 181.890625 107.722656 183.292969 109.25 C 185.027344 111.136719 187.140625 111.859375 189.578125 111.144531 C 193.199219 110.085938 195.796875 107.59375 197.816406 104.546875 C 198.804688 103.054688 198.078125 101.632812 196.320312 101.777344 C 194.34375 101.9375 192.246094 102.460938 190.523438 103.40625 C 187.914062 104.84375 186.949219 105.007812 184.933594 102.808594 "/>
<path style=" stroke:none;fill-rule:nonzero;fill:rgb(35.296631%,34.118652%,34.411621%);fill-opacity:1;" d="M 92.519531 93.699219 C 93.878906 92.285156 95.476562 91.171875 97.398438 90.53125 C 99.648438 89.78125 101.621094 90.46875 103.261719 92.328125 C 103.714844 92.835938 104.15625 93.351562 104.605469 93.863281 L 115.878906 93.523438 C 116.746094 92.605469 117.621094 91.707031 118.558594 90.890625 C 119.730469 89.878906 121.277344 88.785156 122.660156 88.792969 C 124.261719 88.796875 126.085938 89.644531 127.410156 90.710938 C 128.257812 91.390625 128.992188 92.230469 129.710938 93.105469 L 143.535156 92.6875 C 144.042969 92.394531 144.5625 92.117188 145.085938 91.871094 C 148.226562 90.398438 151.1875 90.589844 153.875 92.375 L 166.695312 91.988281 C 168.050781 91.542969 169.4375 91.511719 170.871094 91.859375 L 187.9375 91.347656 C 190.917969 91.257812 193.273438 88.558594 193.175781 85.34375 L 193.113281 83.152344 C 193.015625 79.941406 190.5 77.386719 187.519531 77.480469 L 94.355469 80.289062 C 91.375 80.378906 89.015625 83.082031 89.113281 86.289062 L 89.179688 88.484375 C 89.25 90.835938 90.625 92.832031 92.519531 93.699219 "/>
<path style=" stroke:none;fill-rule:nonzero;fill:rgb(35.296631%,34.118652%,34.411621%);fill-opacity:1;" d="M 121.007812 67.1875 L 96.8125 67.917969 C 95.71875 67.953125 94.851562 68.875 94.882812 69.964844 L 94.980469 73.195312 C 95.015625 74.289062 95.933594 75.15625 97.03125 75.121094 L 121.226562 74.390625 C 122.320312 74.359375 123.1875 73.4375 123.152344 72.34375 L 123.058594 69.117188 C 123.023438 68.023438 122.101562 67.15625 121.007812 67.1875 "/>
<path style=" stroke:none;fill-rule:nonzero;fill:rgb(35.296631%,34.118652%,34.411621%);fill-opacity:1;" d="M 155.566406 68.777344 L 131.367188 69.507812 C 130.273438 69.539062 129.40625 70.460938 129.441406 71.554688 L 129.535156 74.78125 C 129.570312 75.875 130.492188 76.742188 131.585938 76.707031 L 155.78125 75.976562 C 156.875 75.945312 157.742188 75.023438 157.710938 73.929688 L 157.609375 70.703125 C 157.578125 69.609375 156.65625 68.742188 155.566406 68.777344 "/>
<path style=" stroke:none;fill-rule:nonzero;fill:rgb(35.296631%,34.118652%,34.411621%);fill-opacity:1;" d="M 163.070312 66.933594 L 163.167969 70.160156 C 163.199219 71.253906 164.121094 72.121094 165.214844 72.089844 L 189.410156 71.359375 C 190.507812 71.328125 191.375 70.40625 191.335938 69.3125 L 191.242188 66.082031 C 191.207031 64.992188 190.289062 64.121094 189.191406 64.15625 L 164.996094 64.886719 C 163.902344 64.917969 163.035156 65.839844 163.070312 66.933594 "/>
<path style=" stroke:none;fill-rule:nonzero;fill:rgb(35.296631%,34.118652%,34.411621%);fill-opacity:1;" d="M 109.707031 43.460938 C 110.667969 42.890625 111.558594 42.648438 112.089844 43.6875 C 112.621094 44.726562 112.109375 45.714844 111.148438 46.28125 C 110.1875 46.851562 109.136719 46.78125 108.605469 45.742188 C 108.074219 44.703125 108.746094 44.027344 109.707031 43.460938 M 119.632812 34.367188 C 120.71875 34.535156 121.570312 34.917969 121.417969 36.089844 C 121.261719 37.261719 120.300781 37.71875 119.210938 37.550781 C 118.125 37.378906 117.324219 36.644531 117.472656 35.472656 C 117.628906 34.300781 118.542969 34.195312 119.632812 34.367188 M 128.167969 41.085938 C 129.128906 40.519531 130.019531 40.273438 130.550781 41.3125 C 131.082031 42.351562 130.574219 43.339844 129.613281 43.90625 C 128.648438 44.476562 127.597656 44.40625 127.070312 43.367188 C 126.539062 42.328125 127.207031 41.652344 128.167969 41.085938 M 129.003906 31.171875 C 129.789062 30.34375 130.574219 30.859375 131.347656 31.707031 C 132.117188 32.554688 132.582031 33.410156 131.800781 34.238281 C 131.019531 35.066406 129.996094 34.800781 129.222656 33.953125 C 128.449219 33.109375 128.222656 32 129.003906 31.171875 M 138.558594 37.464844 C 139.523438 36.894531 140.410156 36.648438 140.941406 37.6875 C 141.476562 38.726562 140.964844 39.71875 140 40.285156 C 139.039062 40.851562 137.988281 40.785156 137.457031 39.746094 C 136.925781 38.703125 137.59375 38.03125 138.558594 37.464844 M 146.34375 42.15625 C 147.433594 42.328125 148.285156 42.710938 148.132812 43.882812 C 147.976562 45.054688 147.015625 45.511719 145.929688 45.339844 C 144.839844 45.171875 144.035156 44.433594 144.191406 43.261719 C 144.339844 42.089844 145.253906 41.984375 146.34375 42.15625 M 147.988281 30.648438 C 149.078125 30.820312 149.925781 31.199219 149.773438 32.371094 C 149.621094 33.542969 148.65625 34 147.570312 33.828125 C 146.480469 33.660156 145.675781 32.925781 145.832031 31.753906 C 145.984375 30.582031 146.898438 30.476562 147.988281 30.648438 M 162.757812 36.730469 C 163.71875 36.164062 164.613281 35.917969 165.140625 36.960938 C 165.671875 38 165.164062 38.988281 164.203125 39.554688 C 163.238281 40.121094 162.1875 40.054688 161.65625 39.015625 C 161.125 37.976562 161.796875 37.300781 162.757812 36.730469 M 175.847656 44.191406 C 176.9375 44.359375 177.785156 44.742188 177.632812 45.914062 C 177.476562 47.085938 176.515625 47.546875 175.429688 47.375 C 174.339844 47.203125 173.539062 46.46875 173.691406 45.296875 C 173.84375 44.125 174.757812 44.019531 175.847656 44.191406 M 101.910156 65.988281 L 186.246094 60.621094 C 187.113281 60.625 187.746094 59.734375 187.511719 58.828125 C 185.140625 49.5625 181.183594 42.261719 175.648438 36.894531 L 175.84375 36.796875 C 176.429688 36.453125 176.742188 35.851562 176.417969 35.222656 C 176.09375 34.589844 175.554688 34.738281 174.96875 35.082031 C 174.683594 35.253906 174.441406 35.4375 174.304688 35.65625 C 171.589844 33.285156 168.535156 31.34375 165.132812 29.824219 C 165.234375 28.714844 164.40625 28.34375 163.34375 28.175781 C 162.621094 28.0625 161.980469 28.078125 161.582031 28.4375 C 155.679688 26.4375 148.871094 25.550781 141.160156 25.78125 L 140.746094 25.804688 C 140.792969 25.464844 140.738281 25.101562 140.550781 24.730469 C 140.019531 23.691406 139.128906 23.9375 138.167969 24.503906 C 137.441406 24.933594 136.878906 25.425781 136.878906 26.089844 C 132.804688 26.539062 128.878906 27.441406 125.148438 28.753906 C 124.902344 28.253906 124.308594 27.980469 123.589844 27.796875 C 122.523438 27.523438 121.601562 27.542969 121.355469 28.695312 C 121.230469 29.265625 121.355469 29.753906 121.632812 30.132812 C 116.535156 32.347656 111.875 35.34375 107.792969 38.957031 L 107.707031 38.726562 C 107.382812 38.097656 106.839844 38.246094 106.257812 38.589844 C 105.671875 38.933594 105.265625 39.34375 105.585938 39.976562 C 105.730469 40.246094 105.925781 40.402344 106.15625 40.472656 C 101.859375 44.617188 98.289062 49.476562 95.648438 54.847656 C 93.171875 59.886719 96.613281 65.972656 101.910156 65.988281 "/>
<path style=" stroke:none;fill-rule:nonzero;fill:rgb(35.296631%,34.118652%,34.411621%);fill-opacity:1;" d="M 58 156.890625 L 58.007812 147.355469 L 33.128906 147.335938 L 33.09375 198.722656 L 42.570312 198.730469 L 42.585938 175.605469 L 57.988281 175.617188 L 57.996094 166.21875 L 42.589844 166.207031 L 42.597656 156.878906 Z M 58 156.890625 "/>
<path style=" stroke:none;fill-rule:nonzero;fill:rgb(35.296631%,34.118652%,34.411621%);fill-opacity:1;" d="M 94.515625 187.882812 C 92.589844 189.96875 90.167969 191.011719 87.25 191.007812 C 84.417969 191.003906 82.03125 189.941406 80.097656 187.824219 C 78.167969 185.703125 77.199219 183 77.199219 179.714844 C 77.203125 176.457031 78.15625 173.785156 80.058594 171.703125 C 81.964844 169.617188 84.351562 168.574219 87.230469 168.578125 C 90.171875 168.582031 92.605469 169.609375 94.53125 171.65625 C 96.453125 173.710938 97.414062 176.390625 97.410156 179.695312 C 97.40625 183.070312 96.441406 185.804688 94.515625 187.882812 M 106.289062 198.773438 L 106.316406 160.765625 L 97.011719 160.757812 L 97.011719 164.953125 C 95.355469 163.230469 93.554688 161.9375 91.597656 161.070312 C 89.652344 160.207031 87.566406 159.777344 85.339844 159.773438 C 80.503906 159.773438 76.398438 161.644531 73.011719 165.390625 C 69.632812 169.136719 67.9375 173.945312 67.933594 179.816406 C 67.929688 185.472656 69.671875 190.207031 73.164062 194.019531 C 76.65625 197.828125 80.796875 199.734375 85.585938 199.738281 C 87.714844 199.742188 89.695312 199.351562 91.523438 198.574219 C 93.351562 197.792969 95.175781 196.519531 96.992188 194.75 L 96.988281 198.769531 Z M 106.289062 198.773438 "/>
<path style=" stroke:none;fill-rule:nonzero;fill:rgb(35.296631%,34.118652%,34.411621%);fill-opacity:1;" d="M 131.625 171.683594 C 133.558594 169.636719 135.988281 168.613281 138.917969 168.613281 C 141.828125 168.617188 144.234375 169.660156 146.144531 171.746094 C 148.050781 173.832031 149 176.503906 148.996094 179.765625 C 148.996094 183.046875 148.023438 185.75 146.078125 187.867188 C 144.132812 189.984375 141.742188 191.042969 138.90625 191.042969 C 135.972656 191.039062 133.539062 189.996094 131.613281 187.910156 C 129.683594 185.824219 128.722656 183.09375 128.722656 179.714844 C 128.722656 176.410156 129.691406 173.734375 131.625 171.683594 M 119.917969 146.105469 L 119.882812 198.785156 L 129.121094 198.789062 L 129.121094 194.773438 C 130.9375 196.542969 132.765625 197.820312 134.605469 198.601562 C 136.445312 199.382812 138.429688 199.777344 140.566406 199.777344 C 145.359375 199.777344 149.507812 197.878906 153.011719 194.074219 C 156.511719 190.269531 158.265625 185.535156 158.269531 179.875 C 158.269531 174.007812 156.582031 169.195312 153.199219 165.445312 C 149.816406 161.695312 145.707031 159.816406 140.867188 159.8125 C 138.640625 159.8125 136.550781 160.242188 134.597656 161.101562 C 132.640625 161.960938 130.820312 163.25 129.144531 164.976562 L 129.152344 146.113281 Z M 119.917969 146.105469 "/>
<path style=" stroke:none;fill-rule:nonzero;fill:rgb(35.296631%,34.118652%,34.411621%);fill-opacity:1;" d="M 182.296875 168.191406 C 183 168.191406 183.898438 168.46875 184.988281 169.03125 L 187.890625 160.824219 C 186.574219 160.167969 185.3125 159.839844 184.109375 159.839844 C 182.40625 159.839844 180.835938 160.328125 179.402344 161.304688 C 177.972656 162.285156 176.824219 163.714844 175.960938 165.601562 L 175.964844 160.8125 L 167.988281 160.808594 L 167.964844 198.816406 L 177.195312 198.824219 L 177.207031 183.453125 L 177.179688 181.601562 C 177.179688 176.292969 177.675781 172.726562 178.664062 170.914062 C 179.65625 169.097656 180.863281 168.1875 182.296875 168.191406 "/>
<path style=" stroke:none;fill-rule:nonzero;fill:rgb(35.296631%,34.118652%,34.411621%);fill-opacity:1;" d="M 204.515625 147 C 203.34375 145.789062 201.949219 145.183594 200.316406 145.183594 C 198.6875 145.179688 197.292969 145.773438 196.136719 146.960938 C 194.980469 148.148438 194.402344 149.578125 194.402344 151.257812 C 194.398438 153.003906 194.984375 154.488281 196.148438 155.710938 C 197.316406 156.933594 198.722656 157.546875 200.378906 157.546875 C 201.988281 157.550781 203.367188 156.949219 204.523438 155.75 C 205.679688 154.550781 206.257812 153.105469 206.257812 151.402344 C 206.261719 149.679688 205.675781 148.210938 204.515625 147 "/>
<path style=" stroke:none;fill-rule:nonzero;fill:rgb(35.296631%,34.118652%,34.411621%);fill-opacity:1;" d="M 195.628906 198.835938 L 204.933594 198.84375 L 204.957031 160.835938 L 195.65625 160.828125 Z M 195.628906 198.835938 "/>
<path style=" stroke:none;fill-rule:nonzero;fill:rgb(35.296631%,34.118652%,34.411621%);fill-opacity:1;" d="M 217.675781 146.171875 L 217.640625 198.851562 L 226.945312 198.855469 L 226.957031 181.339844 L 242.691406 198.867188 L 254.238281 198.875 L 236.367188 179.070312 L 252.351562 160.867188 L 240.667969 160.859375 L 226.960938 176.519531 L 226.980469 146.179688 Z M 217.675781 146.171875 "/>
<path style=" stroke:none;fill-rule:nonzero;fill:rgb(35.296631%,34.118652%,34.411621%);fill-opacity:1;" d="M 25.234375 134.027344 L 259.003906 134.027344 C 260.773438 134.027344 262.210938 132.589844 262.210938 130.816406 C 262.210938 129.046875 260.773438 127.609375 259.003906 127.609375 L 245.601562 127.609375 C 244.789062 97.699219 227.8125 71.8125 203.082031 58.40625 L 201.554688 61.226562 C 225.285156 74.097656 241.589844 98.914062 242.398438 127.609375 L 181.984375 127.609375 C 185.535156 125.714844 188.710938 123.578125 191.371094 121.21875 C 194.246094 118.671875 191.429688 115.128906 186.585938 115.1875 L 103.050781 116.238281 C 98.207031 116.296875 95.480469 119.917969 98.414062 122.386719 C 100.683594 124.296875 103.308594 126.035156 106.195312 127.609375 L 41.761719 127.609375 C 42.570312 98.914062 58.867188 74.097656 82.605469 61.226562 L 81.074219 58.40625 C 56.34375 71.8125 39.363281 97.699219 38.554688 127.609375 L 25.234375 127.609375 C 23.460938 127.609375 22.023438 129.046875 22.023438 130.816406 C 22.023438 132.589844 23.460938 134.027344 25.234375 134.027344 "/>
<path style=" stroke:none;fill-rule:nonzero;fill:rgb(35.296631%,34.118652%,34.411621%);fill-opacity:1;" d="M 259.003906 214.707031 L 25.234375 214.707031 C 23.460938 214.707031 22.023438 216.140625 22.023438 217.914062 C 22.023438 219.6875 23.460938 221.121094 25.234375 221.121094 L 259.003906 221.121094 C 260.773438 221.121094 262.210938 219.6875 262.210938 217.914062 C 262.210938 216.140625 260.773438 214.707031 259.003906 214.707031 "/>
<path style=" stroke:none;fill-rule:nonzero;fill:rgb(35.296631%,34.118652%,34.411621%);fill-opacity:1;" d="M 258.804688 214.640625 L 25.035156 214.640625 C 23.265625 214.640625 21.828125 216.074219 21.828125 217.84375 C 21.828125 219.617188 23.265625 221.050781 25.035156 221.050781 L 258.804688 221.050781 C 260.578125 221.050781 262.011719 219.617188 262.011719 217.84375 C 262.011719 216.074219 260.578125 214.640625 258.804688 214.640625 "/>
<path style=" stroke:none;fill-rule:nonzero;fill:rgb(35.296631%,34.118652%,34.411621%);fill-opacity:1;" d="M 36 231.21875 L 38.179688 231.21875 C 39.207031 231.226562 39.941406 231.542969 40.511719 232.199219 C 41.085938 232.867188 41.378906 233.683594 41.382812 234.722656 C 41.378906 235.773438 41.085938 236.59375 40.511719 237.261719 C 39.941406 237.914062 39.207031 238.234375 38.179688 238.242188 L 36 238.242188 Z M 41.324219 246.570312 C 40.398438 247.308594 39.371094 247.667969 38.179688 247.671875 C 37.320312 247.671875 36.773438 247.476562 36.484375 247.191406 C 36.148438 246.855469 36.003906 246.515625 36 246.085938 L 36 239.613281 L 39.46875 239.613281 C 40.464844 239.621094 41.179688 239.96875 41.765625 240.714844 C 42.351562 241.472656 42.65625 242.425781 42.65625 243.636719 C 42.648438 244.917969 42.21875 245.84375 41.324219 246.570312 M 42.859375 238.621094 C 43.296875 238.402344 43.714844 238.140625 44.082031 237.800781 L 44.085938 237.796875 C 45.050781 236.902344 45.5625 235.777344 45.558594 234.523438 C 45.566406 233.210938 45.023438 232.058594 44 231.160156 L 43.996094 231.160156 C 42.957031 230.257812 41.683594 229.804688 40.25 229.808594 L 29.640625 229.808594 L 29.640625 231.148438 L 30.050781 231.15625 C 30.757812 231.171875 31.214844 231.351562 31.496094 231.636719 C 31.777344 231.917969 31.949219 232.359375 31.949219 233.042969 L 31.949219 245.808594 C 31.949219 246.507812 31.78125 246.949219 31.507812 247.226562 C 31.234375 247.5 30.796875 247.667969 30.113281 247.671875 L 30.066406 247.671875 L 29.640625 247.667969 L 29.640625 249.019531 L 41.464844 249.019531 C 42.902344 249.023438 44.195312 248.492188 45.253906 247.460938 C 46.304688 246.460938 46.847656 245.1875 46.84375 243.738281 C 46.847656 242.289062 46.304688 241.007812 45.253906 239.988281 C 44.550781 239.308594 43.738281 238.863281 42.859375 238.621094 "/>
<path style=" stroke:none;fill-rule:nonzero;fill:rgb(35.296631%,34.118652%,34.411621%);fill-opacity:1;" d="M 83.121094 230.734375 L 83.121094 231.15625 L 83.542969 231.15625 C 84.238281 231.15625 84.679688 231.328125 84.957031 231.609375 C 85.234375 231.886719 85.40625 232.339844 85.40625 233.046875 L 85.40625 242.929688 C 85.402344 244.480469 84.980469 245.53125 84.191406 246.207031 L 84.1875 246.210938 C 83.394531 246.90625 82.230469 247.28125 80.628906 247.28125 C 79.035156 247.277344 77.859375 246.894531 77.042969 246.175781 C 76.234375 245.464844 75.804688 244.421875 75.78125 242.925781 L 75.78125 233.019531 C 75.785156 232.324219 75.953125 231.878906 76.230469 231.605469 C 76.507812 231.328125 76.949219 231.15625 77.648438 231.15625 L 78.066406 231.15625 L 78.066406 229.820312 L 69.398438 229.820312 L 69.398438 231.15625 L 69.820312 231.15625 C 70.515625 231.15625 70.957031 231.328125 71.234375 231.601562 C 71.507812 231.878906 71.679688 232.324219 71.679688 233.019531 L 71.683594 233.046875 L 71.683594 242.929688 C 71.675781 244.957031 72.328125 246.582031 73.652344 247.664062 L 73.65625 247.667969 C 75.042969 248.777344 76.917969 249.308594 79.238281 249.308594 C 81.488281 249.3125 83.339844 248.773438 84.726562 247.667969 C 86.144531 246.546875 86.863281 244.917969 86.851562 242.929688 L 86.851562 233.046875 C 86.855469 232.335938 87.023438 231.882812 87.296875 231.605469 C 87.570312 231.328125 87.996094 231.15625 88.679688 231.15625 L 89.101562 231.15625 L 89.101562 229.820312 L 83.121094 229.820312 Z M 83.121094 230.734375 "/>
<path style=" stroke:none;fill-rule:nonzero;fill:rgb(35.296631%,34.118652%,34.411621%);fill-opacity:1;" d="M 123.796875 234.988281 C 123.792969 236.066406 123.410156 236.917969 122.601562 237.644531 C 121.792969 238.363281 120.761719 238.726562 119.421875 238.730469 L 118.660156 238.730469 L 118.660156 231.230469 L 119.421875 231.230469 C 120.761719 231.234375 121.792969 231.597656 122.601562 232.320312 C 123.410156 233.046875 123.792969 233.898438 123.796875 234.988281 M 129.097656 246.957031 C 128.527344 246.464844 127.972656 245.691406 127.449219 244.636719 L 127.074219 244.824219 L 127.449219 244.632812 L 125.722656 241.175781 C 125.394531 240.511719 124.945312 240.011719 124.410156 239.671875 C 125.230469 239.371094 125.960938 238.933594 126.5625 238.332031 C 127.507812 237.390625 128.003906 236.242188 128 234.964844 C 128.003906 233.53125 127.386719 232.265625 126.222656 231.285156 C 125.046875 230.292969 123.621094 229.792969 122.011719 229.796875 L 112.285156 229.796875 L 112.285156 231.15625 L 112.707031 231.15625 C 113.402344 231.15625 113.84375 231.328125 114.121094 231.601562 C 114.398438 231.878906 114.566406 232.324219 114.566406 233.019531 L 114.570312 233.046875 L 114.570312 245.808594 C 114.566406 246.507812 114.398438 246.949219 114.125 247.226562 C 113.855469 247.5 113.417969 247.667969 112.730469 247.671875 L 112.703125 247.671875 L 112.285156 247.675781 L 112.285156 249.019531 L 120.945312 249.019531 L 120.945312 247.671875 L 120.523438 247.671875 C 119.824219 247.667969 119.378906 247.5 119.105469 247.226562 C 118.828125 246.957031 118.660156 246.519531 118.660156 245.832031 L 118.660156 240.132812 L 118.742188 240.132812 C 119.535156 240.132812 120.125 240.292969 120.550781 240.582031 C 121.046875 240.910156 121.40625 241.324219 121.652344 241.847656 L 123.253906 245.4375 C 123.859375 246.777344 124.144531 247.816406 124.140625 248.480469 L 124.140625 248.585938 L 124.125 249.019531 L 131.257812 249.019531 L 131.257812 247.671875 L 130.835938 247.671875 C 130.230469 247.667969 129.667969 247.449219 129.097656 246.957031 "/>
<path style=" stroke:none;fill-rule:nonzero;fill:rgb(35.296631%,34.118652%,34.411621%);fill-opacity:1;" d="M 165.5 241.125 L 165.5 241.460938 L 165.824219 241.535156 C 166.601562 241.714844 167.132812 242.019531 167.476562 242.417969 C 167.8125 242.816406 167.996094 243.335938 167.996094 244.039062 L 167.996094 244.695312 C 167.992188 245.683594 167.6875 246.390625 167.070312 246.941406 L 167.0625 246.949219 C 166.472656 247.488281 165.671875 247.769531 164.578125 247.773438 L 164.453125 247.769531 L 164.441406 247.769531 C 163.214844 247.769531 162.230469 247.414062 161.414062 246.703125 L 161.410156 246.699219 C 160.546875 245.960938 159.945312 245.027344 159.597656 243.867188 C 159.207031 242.601562 159.007812 241.175781 159.007812 239.582031 C 159.015625 237.210938 159.570312 235.210938 160.65625 233.554688 C 161.769531 231.871094 163.105469 231.09375 164.800781 231.066406 C 166.367188 231.074219 167.585938 231.46875 168.523438 232.226562 C 169.460938 232.988281 170.136719 234.140625 170.535156 235.734375 L 170.625 236.09375 L 171.457031 236 L 171.855469 235.957031 L 171.523438 229.808594 L 170.242188 229.808594 L 170.210938 230.191406 C 170.191406 230.371094 170.148438 230.4375 170.105469 230.46875 C 170.070312 230.503906 169.992188 230.546875 169.804688 230.546875 C 169.617188 230.550781 169.328125 230.492188 168.972656 230.371094 C 167.355469 229.824219 166.007812 229.539062 164.902344 229.527344 C 162.84375 229.527344 161 229.988281 159.394531 230.910156 C 157.816406 231.820312 156.585938 233.050781 155.738281 234.582031 C 154.875 236.136719 154.441406 237.816406 154.441406 239.582031 C 154.4375 242.355469 155.40625 244.730469 157.316406 246.601562 C 159.136719 248.40625 161.480469 249.316406 164.246094 249.3125 L 164.488281 249.3125 C 166.09375 249.265625 167.558594 248.976562 168.871094 248.433594 C 170.03125 247.964844 171.078125 247.324219 172.003906 246.519531 L 172.148438 246.394531 L 172.148438 244.039062 C 172.152344 243.320312 172.335938 242.796875 172.667969 242.398438 C 173.007812 242.003906 173.527344 241.703125 174.292969 241.535156 L 174.625 241.464844 L 174.625 240.144531 L 165.5 240.144531 Z M 165.5 241.125 "/>
<path style=" stroke:none;fill-rule:nonzero;fill:rgb(35.296631%,34.118652%,34.411621%);fill-opacity:1;" d="M 213.546875 242.863281 L 213.527344 243.296875 C 213.4375 244.8125 212.941406 245.863281 212.039062 246.578125 C 211.136719 247.292969 209.761719 247.683594 207.886719 247.683594 C 206.554688 247.683594 205.613281 247.429688 205.035156 247 C 204.460938 246.5625 204.175781 245.960938 204.167969 245.023438 L 204.167969 239.425781 L 206.078125 239.425781 C 206.910156 239.425781 207.449219 239.636719 207.792969 239.996094 C 208.140625 240.355469 208.347656 240.933594 208.347656 241.804688 L 208.347656 242.226562 L 209.6875 242.226562 L 209.6875 235.261719 L 208.347656 235.261719 L 208.347656 235.683594 C 208.347656 236.539062 208.144531 237.097656 207.796875 237.453125 C 207.453125 237.804688 206.910156 238.011719 206.078125 238.011719 L 204.167969 238.011719 L 204.167969 231.207031 L 208.355469 231.207031 C 209.664062 231.210938 210.601562 231.515625 211.226562 232.074219 C 211.855469 232.632812 212.226562 233.484375 212.3125 234.714844 L 212.34375 235.171875 L 213.292969 235.027344 L 213.675781 234.96875 L 213.34375 229.804688 L 197.808594 229.804688 L 197.808594 231.164062 L 198.238281 231.15625 L 198.300781 231.15625 C 198.976562 231.15625 199.398438 231.324219 199.667969 231.597656 C 199.9375 231.875 200.101562 232.320312 200.105469 233.019531 L 200.105469 245.808594 C 200.101562 246.484375 199.933594 246.917969 199.652344 247.199219 C 199.371094 247.476562 198.921875 247.65625 198.222656 247.671875 L 197.808594 247.679688 L 197.808594 249.019531 L 214.484375 249.019531 L 214.847656 242.972656 L 213.980469 242.898438 Z M 213.546875 242.863281 "/>
<path style=" stroke:none;fill-rule:nonzero;fill:rgb(35.296631%,34.118652%,34.411621%);fill-opacity:1;" d="M 249.519531 234.988281 C 249.511719 236.066406 249.132812 236.917969 248.320312 237.644531 C 247.511719 238.363281 246.480469 238.726562 245.144531 238.730469 L 244.378906 238.730469 L 244.378906 231.230469 L 245.144531 231.230469 C 246.480469 231.234375 247.511719 231.597656 248.320312 232.320312 C 249.132812 233.046875 249.511719 233.898438 249.519531 234.988281 M 256.554688 247.671875 C 255.953125 247.667969 255.390625 247.449219 254.820312 246.957031 C 254.253906 246.464844 253.695312 245.691406 253.171875 244.636719 L 252.792969 244.824219 L 253.171875 244.632812 L 251.441406 241.175781 C 251.117188 240.511719 250.664062 240.011719 250.132812 239.671875 C 250.949219 239.371094 251.683594 238.933594 252.289062 238.332031 C 253.230469 237.390625 253.722656 236.242188 253.722656 234.964844 C 253.730469 233.53125 253.109375 232.265625 251.945312 231.285156 C 250.769531 230.292969 249.339844 229.792969 247.730469 229.796875 L 238.003906 229.796875 L 238.003906 231.15625 L 238.425781 231.15625 C 239.125 231.15625 239.570312 231.328125 239.84375 231.601562 C 240.121094 231.878906 240.289062 232.324219 240.289062 233.019531 L 240.289062 245.808594 C 240.289062 246.507812 240.121094 246.949219 239.847656 247.226562 C 239.574219 247.5 239.140625 247.667969 238.453125 247.671875 L 238.425781 247.671875 L 238.003906 247.675781 L 238.003906 249.019531 L 246.664062 249.019531 L 246.664062 247.671875 L 246.242188 247.671875 C 245.542969 247.667969 245.101562 247.5 244.824219 247.226562 C 244.550781 246.957031 244.382812 246.519531 244.378906 245.832031 L 244.378906 240.132812 L 244.460938 240.132812 C 245.257812 240.132812 245.851562 240.292969 246.273438 240.582031 C 246.769531 240.910156 247.125 241.324219 247.375 241.847656 L 248.972656 245.4375 C 249.582031 246.777344 249.867188 247.816406 249.863281 248.480469 L 249.859375 248.585938 L 249.847656 249.019531 L 256.976562 249.019531 L 256.976562 247.671875 Z M 256.554688 247.671875 "/>
</g>
</svg>
